0x3b180000 (991428608) 
0x3b180200 (991429120) 
0x3b180400 (991429632) 
0x3b180600 (991430144) 
0x3b180800 (991430656) 
0x3b180a00 (991431168) 
0x3b180c00 (991431680) 
0x3b180e00 (991432192) 
0x3b182000 (991436800) 
0x3b182200 (991437312) 
0x3b182400 (991437824) 
0x3b182600 (991438336) 
0x3b182800 (991438848) 
0x3b182a00 (991439360) 
0x3b182c00 (991439872) 
0x3b182e00 (991440384) 
0x3b184000 (991444992) 
0x3b184200 (991445504) 
0x3b184400 (991446016) 
0x3b184600 (991446528) 
0x3b184800 (991447040) 
0x3b184a00 (991447552) 
0x3b184c00 (991448064) 
0x3b184e00 (991448576) 
0x3b186000 (991453184) 
0x3b186200 (991453696) 
0x3b186400 (991454208) 
0x3b186600 (991454720) 
0x3b186800 (991455232) 
0x3b186a00 (991455744) 
0x3b186c00 (991456256) 
0x3b186e00 (991456768) 
0x3b188000 (991461376) 
0x3b188200 (991461888) 
0x3b188400 (991462400) 
0x3b188600 (991462912) 
0x3b188800 (991463424) 
0x3b188a00 (991463936) 
0x3b188c00 (991464448) 
0x3b188e00 (991464960) 
0x3b18a000 (991469568) 
0x3b18a200 (991470080) 
0x3b18a400 (991470592) 
0x3b18a600 (991471104) 
0x3b18a800 (991471616) 
0x3b18aa00 (991472128) 
0x3b18ac00 (991472640) 
0x3b18ae00 (991473152) 
0x3b18c000 (991477760) 
0x3b18c200 (991478272) 
0x3b18c400 (991478784) 
0x3b18c600 (991479296) 
0x3b18c800 (991479808) 
0x3b18ca00 (991480320) 
0x3b18cc00 (991480832) 
0x3b18ce00 (991481344) 
0x3b18e000 (991485952) 
0x3b18e200 (991486464) 
0x3b18e400 (991486976) 
0x3b18e600 (991487488) 
0x3b18e800 (991488000) 
0x3b18ea00 (991488512) 
0x3b18ec00 (991489024) 
0x3b18ee00 (991489536) 
0x3b190000 (991494144) 
0x3b190200 (991494656) 
0x3b190400 (991495168) 
0x3b190600 (991495680) 
0x3b190800 (991496192) 
0x3b190a00 (991496704) 
0x3b190c00 (991497216) 
0x3b190e00 (991497728) 
0x3b192000 (991502336) 
0x3b192200 (991502848) 
0x3b192400 (991503360) 
0x3b192600 (991503872) 
0x3b192800 (991504384) 
0x3b192a00 (991504896) 
0x3b192c00 (991505408) 
0x3b192e00 (991505920) 
0x3b194000 (991510528) 
0x3b194200 (991511040) 
0x3b194400 (991511552) 
0x3b194600 (991512064) 
0x3b195000 (991514624) 
0x3b195200 (991515136) 
0x3b195400 (991515648) 
0x3b195600 (991516160) 
0x3b196000 (991518720) 
0x3b196200 (991519232) 
0x3b196400 (991519744) 
0x3b196600 (991520256) 
0x3b197000 (991522816) 
0x3b197200 (991523328) 
0x3b197400 (991523840) 
0x3b197600 (991524352) 
0x3b181000 (991432704) 
0x3b181200 (991433216) 
0x3b181400 (991433728) 
0x3b181600 (991434240) 
0x3b181800 (991434752) 
0x3b181a00 (991435264) 
0x3b181c00 (991435776) 
0x3b181e00 (991436288) 
0x3b183000 (991440896) 
0x3b183200 (991441408) 
0x3b183400 (991441920) 
0x3b183600 (991442432) 
0x3b183800 (991442944) 
0x3b183a00 (991443456) 
0x3b183c00 (991443968) 
0x3b183e00 (991444480) 
0x3b185000 (991449088) 
0x3b185200 (991449600) 
0x3b185400 (991450112) 
0x3b185600 (991450624) 
0x3b185800 (991451136) 
0x3b185a00 (991451648) 
0x3b185c00 (991452160) 
0x3b185e00 (991452672) 
0x3b187000 (991457280) 
0x3b187200 (991457792) 
0x3b187400 (991458304) 
0x3b187600 (991458816) 
0x3b187800 (991459328) 
0x3b187a00 (991459840) 
0x3b187c00 (991460352) 
0x3b187e00 (991460864) 
0x3b189000 (991465472) 
0x3b189200 (991465984) 
0x3b189400 (991466496) 
0x3b189600 (991467008) 
0x3b189800 (991467520) 
0x3b189a00 (991468032) 
0x3b189c00 (991468544) 
0x3b189e00 (991469056) 
0x3b18b000 (991473664) 
0x3b18b200 (991474176) 
0x3b18b400 (991474688) 
0x3b18b600 (991475200) 
0x3b18b800 (991475712) 
0x3b18ba00 (991476224) 
0x3b18bc00 (991476736) 
0x3b18be00 (991477248) 
0x3b18d000 (991481856) 
0x3b18d200 (991482368) 
0x3b18d400 (991482880) 
0x3b18d600 (991483392) 
0x3b18d800 (991483904) 
0x3b18da00 (991484416) 
0x3b18dc00 (991484928) 
0x3b18de00 (991485440) 
0x3b18f000 (991490048) 
0x3b18f200 (991490560) 
0x3b18f400 (991491072) 
0x3b18f600 (991491584) 
0x3b18f800 (991492096) 
0x3b18fa00 (991492608) 
0x3b18fc00 (991493120) 
0x3b18fe00 (991493632) 
0x3b191000 (991498240) 
0x3b191200 (991498752) 
0x3b191400 (991499264) 
0x3b191600 (991499776) 
0x3b191800 (991500288) 
0x3b191a00 (991500800) 
0x3b191c00 (991501312) 
0x3b191e00 (991501824) 
0x3b193000 (991506432) 
0x3b193200 (991506944) 
0x3b193400 (991507456) 
0x3b193600 (991507968) 
0x3b193800 (991508480) 
0x3b193a00 (991508992) 
0x3b193c00 (991509504) 
0x3b193e00 (991510016) 
0x3b194800 (991512576) 
0x3b194a00 (991513088) 
0x3b194c00 (991513600) 
0x3b194e00 (991514112) 
0x3b195800 (991516672) 
0x3b195a00 (991517184) 
0x3b195c00 (991517696) 
0x3b195e00 (991518208) 
0x3b196800 (991520768) 
0x3b196a00 (991521280) 
0x3b196c00 (991521792) 
0x3b196e00 (991522304) 
0x3b197800 (991524864) 
0x3b197a00 (991525376) 
0x3b197c00 (991525888) 
0x3b197e00 (991526400) 
